tinker_tb.vcd
$date
	Wed Apr 16 21:50:59 2025
$end
$version
	Icarus Verilog
$end
$timescale
	1ps
$end
$scope module tinker_tb $end
$var wire 1 ! hlt $end
$var reg 1 " clk $end
$var reg 1 # reset $end
$var integer 32 $ i [31:0] $end
$scope module cpu $end
$var wire 1 " clk $end
$var wire 1 ! hlt $end
$var wire 1 # reset $end
$var wire 64 % wb_data [63:0] $end
$var wire 64 & signExtL [63:0] $end
$var wire 1 ' rtPassed $end
$var wire 5 ( rt [4:0] $end
$var wire 5 ) rs [4:0] $end
$var wire 64 * reg_val2 [63:0] $end
$var wire 64 + reg_val1 [63:0] $end
$var wire 64 , rdVal [63:0] $end
$var wire 5 - rd [4:0] $end
$var wire 64 . r31_val [63:0] $end
$var wire 1 / mem_write_enable_alu $end
$var wire 64 0 mem_rdata [63:0] $end
$var wire 32 1 instruction_from_mem [31:0] $end
$var wire 5 2 controlSignal [4:0] $end
$var wire 1 3 alu_writeEnable $end
$var wire 64 4 alu_updated_next [63:0] $end
$var wire 64 5 alu_rw_val [63:0] $end
$var wire 32 6 alu_rw_addr [31:0] $end
$var wire 64 7 alu_result [63:0] $end
$var wire 64 8 alu_operand2 [63:0] $end
$var wire 1 9 alu_changing_pc $end
$var wire 12 : L [11:0] $end
$var reg 64 ; EX_MEM_alu_result [63:0] $end
$var reg 1 < EX_MEM_changing_pc $end
$var reg 1 = EX_MEM_memToReg $end
$var reg 1 > EX_MEM_mem_write_enable $end
$var reg 5 ? EX_MEM_rd [4:0] $end
$var reg 64 @ EX_MEM_reg_val2 [63:0] $end
$var reg 32 A EX_MEM_rw_addr [31:0] $end
$var reg 64 B EX_MEM_rw_val [63:0] $end
$var reg 64 C EX_MEM_updated_next [63:0] $end
$var reg 1 D EX_MEM_writeEnable $end
$var reg 12 E ID_EX_L [11:0] $end
$var reg 64 F ID_EX_PC [63:0] $end
$var reg 5 G ID_EX_control [4:0] $end
$var reg 1 H ID_EX_memToReg $end
$var reg 5 I ID_EX_rd [4:0] $end
$var reg 64 J ID_EX_reg_val1 [63:0] $end
$var reg 64 K ID_EX_reg_val2 [63:0] $end
$var reg 5 L ID_EX_rs [4:0] $end
$var reg 5 M ID_EX_rt [4:0] $end
$var reg 1 N ID_EX_rtPassed $end
$var reg 32 O IF_ID_IR [31:0] $end
$var reg 64 P IF_ID_PC [63:0] $end
$var reg 64 Q MEM_WB_alu_result [63:0] $end
$var reg 1 R MEM_WB_memToReg $end
$var reg 64 S MEM_WB_mem_data [63:0] $end
$var reg 5 T MEM_WB_rd [4:0] $end
$var reg 1 U MEM_WB_writeEnable $end
$var reg 64 V PC [63:0] $end
$scope module alu_inst $end
$var wire 5 W opcode [4:0] $end
$var wire 64 X operand1 [63:0] $end
$var wire 64 Y operand2 [63:0] $end
$var wire 64 Z pc [63:0] $end
$var wire 64 [ rdVal [63:0] $end
$var wire 64 \ r_out [63:0] $end
$var wire 64 ] r31_val [63:0] $end
$var reg 1 9 changing_pc $end
$var reg 1 / mem_write_enable $end
$var reg 64 ^ result [63:0] $end
$var reg 32 _ rw_addr [31:0] $end
$var reg 64 ` rw_val [63:0] $end
$var reg 64 a updated_next [63:0] $end
$var reg 1 3 writeEnable $end
$upscope $end
$scope module decoder_inst $end
$var wire 32 b instruction [31:0] $end
$var wire 1 ' rtPassed $end
$var wire 5 c rt [4:0] $end
$var wire 5 d rs [4:0] $end
$var wire 5 e rd [4:0] $end
$var wire 5 f controlSignal [4:0] $end
$var wire 12 g L [11:0] $end
$upscope $end
$scope module memory $end
$var wire 1 " clk $end
$var wire 1 > mem_write_enable $end
$var wire 64 h pc [63:0] $end
$var wire 1 # reset $end
$var wire 32 i rw_addr [31:0] $end
$var wire 64 j rw_val [63:0] $end
$var wire 64 k r_out [63:0] $end
$var wire 32 l instruction [31:0] $end
$upscope $end
$scope module reg_file $end
$var wire 12 m L [11:0] $end
$var wire 1 " clk $end
$var wire 64 n dataInput [63:0] $end
$var wire 1 ' lPassed $end
$var wire 64 o r31_val [63:0] $end
$var wire 64 p rdVal [63:0] $end
$var wire 5 q readAddress1 [4:0] $end
$var wire 5 r readAddress2 [4:0] $end
$var wire 1 # reset $end
$var wire 64 s value1 [63:0] $end
$var wire 5 t writeAddress [4:0] $end
$var wire 1 U write_enable $end
$var wire 64 u value2 [63:0] $end
$var integer 32 v i [31:0] $end
$upscope $end
$upscope $end
$scope task init_regs_i $end
$var reg 64 w vrs [63:0] $end
$upscope $end
$scope task init_regs_r $end
$var reg 64 x vrs [63:0] $end
$var reg 64 y vrt [63:0] $end
$upscope $end
$scope task run_i_test $end
$var reg 64 z expect [63:0] $end
$var reg 12 { imm [11:0] $end
$var reg 32 | inst [31:0] $end
$var reg 128 } name [128:1] $end
$var reg 5 ~ opcode [4:0] $end
$var reg 64 !" sxt [63:0] $end
$var reg 64 "" vs [63:0] $end
$upscope $end
$scope task run_r_test $end
$var reg 64 #" expect [63:0] $end
$var reg 32 $" inst [31:0] $end
$var reg 128 %" name [128:1] $end
$var reg 5 &" opcode [4:0] $end
$var reg 64 '" vs [63:0] $end
$var reg 64 (" vt [63:0] $end
$upscope $end
$scope task write_inst $end
$var reg 32 )" inst [31:0] $end
$upscope $end
$upscope $end
$enddefinitions $end
#0
$dumpvars
bx )"
b10100010 ("
b11110111 '"
b11000 &"
b1000001010001000100010000100000001000000010000000101000001100010011011000101011001100010011011100101001 %"
bx $"
b110011001 #"
bx ""
bx !"
bx ~
bx }
bx |
bx {
bx z
bx y
bx x
bx w
bx v
b0 u
b0 t
bx s
b0 r
b0 q
bx p
bx o
b0 n
b0 m
bx l
bx k
b0 j
b0 i
b10000000000000 h
b0 g
b0 f
b0 e
b0 d
b0 c
b0 b
b100 a
bx `
bx _
b0 ^
bx ]
bx \
bx [
b0 Z
b0 Y
b0 X
b0 W
b10000000000000 V
0U
b0 T
b0 S
0R
b0 Q
b0 P
b0 O
0N
b0 M
b0 L
b0 K
b0 J
b0 I
0H
b0 G
b0 F
b0 E
0D
b0 C
b0 B
b0 A
b0 @
b0 ?
0>
0=
0<
b0 ;
b0 :
09
b0 8
b0 7
bx 6
bx 5
b100 4
13
b0 2
bx 1
bx 0
0/
bx .
b0 -
bx ,
bx +
b0 *
b0 )
b0 (
1'
b0 &
b0 %
bx $
1#
0"
0!
$end
#1000
b10000000000000000000 .
b10000000000000000000 ]
b10000000000000000000 o
b0 +
b0 s
b0 ,
b0 [
b0 p
b11111 v
1"
#2000
0"
#3000
b11111 v
1"
#4000
0"
#5000
b11111 v
1"
#6000
0"
#7000
b11111 v
1"
#8000
0"
#9000
b11111 v
1"
#10000
0"
0#
b11000000001000010001000000000000 1
b11000000001000010001000000000000 l
b11000000001000010001000000000000 )"
b11000000001000010001000000000000 $"
b10000 $
b10100010 y
b11110111 x
#11000
b11000 2
b11000 f
b11110111 +
b11110111 s
b10000 )
b10000 d
b10000 q
b10001 (
b10001 c
b10001 r
b10000000000000 P
b11000000001000010001000000000000 O
b11000000001000010001000000000000 b
b10001000000000000000000000000 1
b10001000000000000000000000000 l
b10000000000100 V
b10000000000100 h
1N
b100 C
bx B
bx j
bx A
bx i
1D
bx S
1"
#12000
0"
#13000
b11110111 7
b11110111 ^
b10000000000100 4
b10000000000100 a
b10 2
b10 f
b100 -
b100 e
b0 +
b0 s
b0 )
b0 d
b0 q
b0 (
b0 c
b0 r
1U
1H
b10000000000000 F
b10000000000000 Z
b11110111 J
b11110111 X
b10001 M
b10000 L
b11000 G
b11000 W
b10000000000100 P
b10001000000000000000000000000 O
b10001000000000000000000000000 b
bx 1
bx l
b10000000001000 V
b10000000001000 h
1"
#14000
0"
#15000
x'
bx *
bx u
x!
bx 2
bx f
bx -
bx e
bx +
bx s
bx )
bx d
bx q
bx (
bx c
bx r
bx :
bx g
bx m
b0 7
b0 ^
b10000000001000 4
b10000000001000 a
b10000000001000 P
bx O
bx b
b10000000001100 V
b10000000001100 h
0H
b10000000000100 F
b10000000000100 Z
b0 J
b0 X
b100 I
b0 M
b0 L
b10 G
b10 W
1=
b10000000000100 C
b11110111 ;
1"
#16000
0"
#17000
bx %
bx n
bx 8
bx Y
03
b10000000001100 4
b10000000001100 a
1R
b11110111 Q
0=
b10000000001000 C
b0 ;
b100 ?
xH
b10000000001000 F
b10000000001000 Z
bx K
bx J
bx X
xN
bx &
bx E
bx I
bx M
bx L
bx G
bx W
b10000000001100 P
b10000000010000 V
b10000000010000 h
1"
#18000
0"
#19000
b10000000010000 4
b10000000010000 a
03
b0 %
b0 n
b10000000010000 P
b10000000010100 V
b10000000010100 h
b10000000001100 F
b10000000001100 Z
x=
b10000000001100 C
0D
bx @
bx ?
0R
b0 Q
b100 T
b100 t
1"
#20000
0"
#21000
bx %
bx n
b10000000010100 4
b10000000010100 a
03
xR
0U
bx ,
bx [
bx p
bx T
bx t
b10000000010000 C
b10000000010000 F
b10000000010000 Z
b10000000010100 P
b10000000011000 V
b10000000011000 h
1"
#22000
0"
#23000
b10000000011000 4
b10000000011000 a
03
b10000000011000 P
b10000000011100 V
b10000000011100 h
b10000000010100 F
b10000000010100 Z
b10000000010100 C
1"
#24000
0"
#25000
b10000000011100 4
b10000000011100 a
03
b10000000011000 C
b10000000011000 F
b10000000011000 Z
b10000000011100 P
b10000000100000 V
b10000000100000 h
1"
#26000
0"
#27000
b10000000100000 4
b10000000100000 a
03
b10000000100000 P
b10000000100100 V
b10000000100100 h
b10000000011100 F
b10000000011100 Z
b10000000011100 C
1"
#28000
0"
#29000
b10000000100100 4
b10000000100100 a
03
b10000000100000 C
b10000000100000 F
b10000000100000 Z
b10000000100100 P
b10000000101000 V
b10000000101000 h
1"
#30000
0"
#31000
b10000000101000 4
b10000000101000 a
03
b10000000101000 P
b10000000101100 V
b10000000101100 h
b10000000100100 F
b10000000100100 Z
b10000000100100 C
1"
#32000
0"
#33000
b10000000101100 4
b10000000101100 a
03
b10000000101000 C
b10000000101000 F
b10000000101000 Z
b10000000101100 P
b10000000110000 V
b10000000110000 h
1"
#34000
0"
#35000
b10000000110000 4
b10000000110000 a
03
b10000000110000 P
b10000000110100 V
b10000000110100 h
b10000000101100 F
b10000000101100 Z
b10000000101100 C
1"
#36000
0"
#37000
b10000000110100 4
b10000000110100 a
03
b10000000110000 C
b10000000110000 F
b10000000110000 Z
b10000000110100 P
b10000000111000 V
b10000000111000 h
1"
#38000
0"
#39000
b10000000111000 4
b10000000111000 a
03
b10000000111000 P
b10000000111100 V
b10000000111100 h
b10000000110100 F
b10000000110100 Z
b10000000110100 C
1"
#40000
0"
#41000
b10000000111100 4
b10000000111100 a
03
b10000000111000 C
b10000000111000 F
b10000000111000 Z
b10000000111100 P
b10000001000000 V
b10000001000000 h
1"
#42000
0"
#43000
b10000001000000 4
b10000001000000 a
03
b10000001000000 P
b10000001000100 V
b10000001000100 h
b10000000111100 F
b10000000111100 Z
b10000000111100 C
1"
#44000
0"
#45000
b10000001000100 4
b10000001000100 a
03
b10000001000000 C
b10000001000000 F
b10000001000000 Z
b10000001000100 P
b10000001001000 V
b10000001001000 h
1"
#46000
0"
#47000
b10000001001000 4
b10000001001000 a
03
b10000001001000 P
b10000001001100 V
b10000001001100 h
b10000001000100 F
b10000001000100 Z
b10000001000100 C
1"
#48000
0"
#49000
b10000001001100 4
b10000001001100 a
03
b10000001001000 C
b10000001001000 F
b10000001001000 Z
b10000001001100 P
b10000001010000 V
b10000001010000 h
1"
#50000
0"
#51000
b10000001010000 4
b10000001010000 a
03
b10000001010000 P
b10000001010100 V
b10000001010100 h
b10000001001100 F
b10000001001100 Z
b10000001001100 C
1"
#52000
0"
#53000
b10000001010100 4
b10000001010100 a
03
b10000001010000 C
b10000001010000 F
b10000001010000 Z
b10000001010100 P
b10000001011000 V
b10000001011000 h
1"
#54000
0"
#55000
b10000001011000 4
b10000001011000 a
03
b10000001011000 P
b10000001011100 V
b10000001011100 h
b10000001010100 F
b10000001010100 Z
b10000001010100 C
1"
#56000
0"
#57000
b10000001011100 4
b10000001011100 a
03
b10000001011000 C
b10000001011000 F
b10000001011000 Z
b10000001011100 P
b10000001100000 V
b10000001100000 h
1"
#58000
0"
#59000
b10000001100000 4
b10000001100000 a
03
b10000001100000 P
b10000001100100 V
b10000001100100 h
b10000001011100 F
b10000001011100 Z
b10000001011100 C
1"
#60000
b0 *
b0 u
1'
0!
b0 %
b0 n
b0 8
b0 Y
b100 4
b100 a
13
b0 2
b0 f
b0 -
b0 e
b0 )
b0 d
b0 q
b0 (
b0 c
b0 r
b0 :
b0 g
b0 m
0R
b0 S
b0 T
b0 t
0=
b0 C
b0 B
b0 j
b0 A
b0 i
b0 @
b0 ?
0H
b0 F
b0 Z
b0 K
b0 J
b0 X
0N
b0 &
b0 E
b0 I
b0 M
b0 L
b0 G
b0 W
b0 P
b0 O
b0 b
b11000000001000010001000000000000 1
b11000000001000010001000000000000 l
b10000000000000 V
b10000000000000 h
0"
1#
b111100 #"
b101000 ("
b1100100 '"
b11010 &"
b1010011010101010100001000100000001000000010000000101000001100010011011000101101001100010011011100101001 %"
#61000
b0 +
b0 s
b0 ,
b0 [
b0 p
b11111 v
1"
#62000
0"
#63000
b11111 v
1"
#64000
0"
#65000
b11111 v
1"
#66000
0"
#67000
b11111 v
1"
#68000
0"
#69000
b11111 v
1"
#70000
0"
0#
b11010000001000010001000000000000 1
b11010000001000010001000000000000 l
b11010000001000010001000000000000 )"
b11010000001000010001000000000000 $"
b10000 $
b101000 y
b1100100 x
#71000
b11010 2
b11010 f
b1100100 +
b1100100 s
b10000 )
b10000 d
b10000 q
b10001 (
b10001 c
b10001 r
bx S
b100 C
bx B
bx j
bx A
bx i
1D
1N
b10000000000000 P
b11010000001000010001000000000000 O
b11010000001000010001000000000000 b
b10001000000000000000000000000 1
b10001000000000000000000000000 l
b10000000000100 V
b10000000000100 h
1"
#72000
0"
#73000
b10 2
b10 f
b100 -
b100 e
b0 +
b0 s
b0 )
b0 d
b0 q
b0 (
b0 c
b0 r
b1100100 7
b1100100 ^
b10000000000100 4
b10000000000100 a
b10000000000100 P
b10001000000000000000000000000 O
b10001000000000000000000000000 b
bx 1
bx l
b10000000001000 V
b10000000001000 h
1H
b10000000000000 F
b10000000000000 Z
b1100100 J
b1100100 X
b10001 M
b10000 L
b11010 G
b11010 W
1U
1"
#74000
0"
#75000
x'
bx *
bx u
x!
b0 7
b0 ^
b10000000001000 4
b10000000001000 a
bx 2
bx f
bx -
bx e
bx +
bx s
bx )
bx d
bx q
bx (
bx c
bx r
bx :
bx g
bx m
1=
b10000000000100 C
b1100100 ;
0H
b10000000000100 F
b10000000000100 Z
b0 J
b0 X
b100 I
b0 M
b0 L
b10 G
b10 W
b10000000001000 P
bx O
bx b
b10000000001100 V
b10000000001100 h
1"
#76000
0"
#77000
bx 8
bx Y
03
b10000000001100 4
b10000000001100 a
bx %
bx n
b10000000001100 P
b10000000010000 V
b10000000010000 h
xH
b10000000001000 F
b10000000001000 Z
bx K
bx J
bx X
xN
bx &
bx E
bx I
bx M
bx L
bx G
bx W
0=
b10000000001000 C
b0 ;
b100 ?
1R
b1100100 Q
1"
#78000
0"
#79000
b0 %
b0 n
b10000000010000 4
b10000000010000 a
03
0R
b0 Q
b100 T
b100 t
x=
b10000000001100 C
0D
bx @
bx ?
b10000000001100 F
b10000000001100 Z
b10000000010000 P
b10000000010100 V
b10000000010100 h
1"
#80000
0"
#81000
bx %
bx n
b10000000010100 4
b10000000010100 a
03
b10000000010100 P
b10000000011000 V
b10000000011000 h
b10000000010000 F
b10000000010000 Z
b10000000010000 C
xR
0U
bx ,
bx [
bx p
bx T
bx t
1"
#82000
0"
#83000
b10000000011000 4
b10000000011000 a
03
b10000000010100 C
b10000000010100 F
b10000000010100 Z
b10000000011000 P
b10000000011100 V
b10000000011100 h
1"
#84000
0"
#85000
b10000000011100 4
b10000000011100 a
03
b10000000011100 P
b10000000100000 V
b10000000100000 h
b10000000011000 F
b10000000011000 Z
b10000000011000 C
1"
#86000
0"
#87000
b10000000100000 4
b10000000100000 a
03
b10000000011100 C
b10000000011100 F
b10000000011100 Z
b10000000100000 P
b10000000100100 V
b10000000100100 h
1"
#88000
0"
#89000
b10000000100100 4
b10000000100100 a
03
b10000000100100 P
b10000000101000 V
b10000000101000 h
b10000000100000 F
b10000000100000 Z
b10000000100000 C
1"
#90000
0"
#91000
b10000000101000 4
b10000000101000 a
03
b10000000100100 C
b10000000100100 F
b10000000100100 Z
b10000000101000 P
b10000000101100 V
b10000000101100 h
1"
#92000
0"
#93000
b10000000101100 4
b10000000101100 a
03
b10000000101100 P
b10000000110000 V
b10000000110000 h
b10000000101000 F
b10000000101000 Z
b10000000101000 C
1"
#94000
0"
#95000
b10000000110000 4
b10000000110000 a
03
b10000000101100 C
b10000000101100 F
b10000000101100 Z
b10000000110000 P
b10000000110100 V
b10000000110100 h
1"
#96000
0"
#97000
b10000000110100 4
b10000000110100 a
03
b10000000110100 P
b10000000111000 V
b10000000111000 h
b10000000110000 F
b10000000110000 Z
b10000000110000 C
1"
#98000
0"
#99000
b10000000111000 4
b10000000111000 a
03
b10000000110100 C
b10000000110100 F
b10000000110100 Z
b10000000111000 P
b10000000111100 V
b10000000111100 h
1"
#100000
0"
#101000
b10000000111100 4
b10000000111100 a
03
b10000000111100 P
b10000001000000 V
b10000001000000 h
b10000000111000 F
b10000000111000 Z
b10000000111000 C
1"
#102000
0"
#103000
b10000001000000 4
b10000001000000 a
03
b10000000111100 C
b10000000111100 F
b10000000111100 Z
b10000001000000 P
b10000001000100 V
b10000001000100 h
1"
#104000
0"
#105000
b10000001000100 4
b10000001000100 a
03
b10000001000100 P
b10000001001000 V
b10000001001000 h
b10000001000000 F
b10000001000000 Z
b10000001000000 C
1"
#106000
0"
#107000
b10000001001000 4
b10000001001000 a
03
b10000001000100 C
b10000001000100 F
b10000001000100 Z
b10000001001000 P
b10000001001100 V
b10000001001100 h
1"
#108000
0"
#109000
b10000001001100 4
b10000001001100 a
03
b10000001001100 P
b10000001010000 V
b10000001010000 h
b10000001001000 F
b10000001001000 Z
b10000001001000 C
1"
#110000
0"
#111000
b10000001010000 4
b10000001010000 a
03
b10000001001100 C
b10000001001100 F
b10000001001100 Z
b10000001010000 P
b10000001010100 V
b10000001010100 h
1"
#112000
0"
#113000
b10000001010100 4
b10000001010100 a
03
b10000001010100 P
b10000001011000 V
b10000001011000 h
b10000001010000 F
b10000001010000 Z
b10000001010000 C
1"
#114000
0"
#115000
b10000001011000 4
b10000001011000 a
03
b10000001010100 C
b10000001010100 F
b10000001010100 Z
b10000001011000 P
b10000001011100 V
b10000001011100 h
1"
#116000
0"
#117000
b10000001011100 4
b10000001011100 a
03
b10000001011100 P
b10000001100000 V
b10000001100000 h
b10000001011000 F
b10000001011000 Z
b10000001011000 C
1"
#118000
0"
#119000
b10000001100000 4
b10000001100000 a
03
b10000001011100 C
b10000001011100 F
b10000001011100 Z
b10000001100000 P
b10000001100100 V
b10000001100100 h
1"
#120000
b0 *
b0 u
1'
0!
b0 2
b0 f
b0 -
b0 e
b0 )
b0 d
b0 q
b0 (
b0 c
b0 r
b0 :
b0 g
b0 m
b0 8
b0 Y
b100 4
b100 a
13
b0 %
b0 n
b0 P
b0 O
b0 b
b11010000001000010001000000000000 1
b11010000001000010001000000000000 l
b10000000000000 V
b10000000000000 h
0H
b0 F
b0 Z
b0 K
b0 J
b0 X
0N
b0 &
b0 E
b0 I
b0 M
b0 L
b0 G
b0 W
0=
b0 C
b0 B
b0 j
b0 A
b0 i
b0 @
b0 ?
0R
b0 S
b0 T
b0 t
0"
1#
b1001 #"
b1001 ("
b1111 '"
b0 &"
b1000001010011100100010000100000001000000010000000101000001100010011011000100110001100010011011100101001 %"
#121000
b0 +
b0 s
b0 ,
b0 [
b0 p
b11111 v
1"
#122000
0"
#123000
b11111 v
1"
#124000
0"
#125000
b11111 v
1"
#126000
0"
#127000
b11111 v
1"
#128000
0"
#129000
b11111 v
1"
#130000
0"
0#
b1000010001000000000000 1
b1000010001000000000000 l
b1000010001000000000000 )"
b1000010001000000000000 $"
b10000 $
b1001 y
b1111 x
#131000
b1111 +
b1111 s
b10000 )
b10000 d
b10000 q
b10001 (
b10001 c
b10001 r
b10000000000000 P
b1000010001000000000000 O
b1000010001000000000000 b
b10001000000000000000000000000 1
b10001000000000000000000000000 l
b10000000000100 V
b10000000000100 h
1N
b100 C
bx B
bx j
bx A
bx i
1D
bx S
1"
#132000
0"
#133000
b10000000000100 4
b10000000000100 a
b10 2
b10 f
b100 -
b100 e
b0 +
b0 s
b0 )
b0 d
b0 q
b0 (
b0 c
b0 r
1U
b10000000000000 F
b10000000000000 Z
b1111 J
b1111 X
b10001 M
b10000 L
b10000000000100 P
b10001000000000000000000000000 O
b10001000000000000000000000000 b
bx 1
bx l
b10000000001000 V
b10000000001000 h
1"
#134000
0"
#135000
x'
bx *
bx u
x!
bx 2
bx f
bx -
bx e
bx +
bx s
bx )
bx d
bx q
bx (
bx c
bx r
bx :
bx g
bx m
b10000000001000 4
b10000000001000 a
b10000000001000 P
bx O
bx b
b10000000001100 V
b10000000001100 h
b10000000000100 F
b10000000000100 Z
b0 J
b0 X
b100 I
b0 M
b0 L
b10 G
b10 W
b10000000000100 C
1"
#136000
0"
#137000
bx 8
bx Y
03
b10000000001100 4
b10000000001100 a
b10000000001000 C
b100 ?
xH
b10000000001000 F
b10000000001000 Z
bx K
bx J
bx X
xN
bx &
bx E
bx I
bx M
bx L
bx G
bx W
b10000000001100 P
b10000000010000 V
b10000000010000 h
1"
#138000
0"
#139000
b10000000010000 4
b10000000010000 a
03
b10000000010000 P
b10000000010100 V
b10000000010100 h
b10000000001100 F
b10000000001100 Z
x=
b10000000001100 C
0D
bx @
bx ?
b100 T
b100 t
1"
#140000
0"
#141000
bx %
bx n
b10000000010100 4
b10000000010100 a
03
xR
0U
bx ,
bx [
bx p
bx T
bx t
b10000000010000 C
b10000000010000 F
b10000000010000 Z
b10000000010100 P
b10000000011000 V
b10000000011000 h
1"
#142000
0"
#143000
b10000000011000 4
b10000000011000 a
03
b10000000011000 P
b10000000011100 V
b10000000011100 h
b10000000010100 F
b10000000010100 Z
b10000000010100 C
1"
#144000
0"
#145000
b10000000011100 4
b10000000011100 a
03
b10000000011000 C
b10000000011000 F
b10000000011000 Z
b10000000011100 P
b10000000100000 V
b10000000100000 h
1"
#146000
0"
#147000
b10000000100000 4
b10000000100000 a
03
b10000000100000 P
b10000000100100 V
b10000000100100 h
b10000000011100 F
b10000000011100 Z
b10000000011100 C
1"
#148000
0"
#149000
b10000000100100 4
b10000000100100 a
03
b10000000100000 C
b10000000100000 F
b10000000100000 Z
b10000000100100 P
b10000000101000 V
b10000000101000 h
1"
#150000
0"
#151000
b10000000101000 4
b10000000101000 a
03
b10000000101000 P
b10000000101100 V
b10000000101100 h
b10000000100100 F
b10000000100100 Z
b10000000100100 C
1"
#152000
0"
#153000
b10000000101100 4
b10000000101100 a
03
b10000000101000 C
b10000000101000 F
b10000000101000 Z
b10000000101100 P
b10000000110000 V
b10000000110000 h
1"
#154000
0"
#155000
b10000000110000 4
b10000000110000 a
03
b10000000110000 P
b10000000110100 V
b10000000110100 h
b10000000101100 F
b10000000101100 Z
b10000000101100 C
1"
#156000
0"
#157000
b10000000110100 4
b10000000110100 a
03
b10000000110000 C
b10000000110000 F
b10000000110000 Z
b10000000110100 P
b10000000111000 V
b10000000111000 h
1"
#158000
0"
#159000
b10000000111000 4
b10000000111000 a
03
b10000000111000 P
b10000000111100 V
b10000000111100 h
b10000000110100 F
b10000000110100 Z
b10000000110100 C
1"
#160000
0"
#161000
b10000000111100 4
b10000000111100 a
03
b10000000111000 C
b10000000111000 F
b10000000111000 Z
b10000000111100 P
b10000001000000 V
b10000001000000 h
1"
#162000
0"
#163000
b10000001000000 4
b10000001000000 a
03
b10000001000000 P
b10000001000100 V
b10000001000100 h
b10000000111100 F
b10000000111100 Z
b10000000111100 C
1"
#164000
0"
#165000
b10000001000100 4
b10000001000100 a
03
b10000001000000 C
b10000001000000 F
b10000001000000 Z
b10000001000100 P
b10000001001000 V
b10000001001000 h
1"
#166000
0"
#167000
b10000001001000 4
b10000001001000 a
03
b10000001001000 P
b10000001001100 V
b10000001001100 h
b10000001000100 F
b10000001000100 Z
b10000001000100 C
1"
#168000
0"
#169000
b10000001001100 4
b10000001001100 a
03
b10000001001000 C
b10000001001000 F
b10000001001000 Z
b10000001001100 P
b10000001010000 V
b10000001010000 h
1"
#170000
0"
#171000
b10000001010000 4
b10000001010000 a
03
b10000001010000 P
b10000001010100 V
b10000001010100 h
b10000001001100 F
b10000001001100 Z
b10000001001100 C
1"
#172000
0"
#173000
b10000001010100 4
b10000001010100 a
03
b10000001010000 C
b10000001010000 F
b10000001010000 Z
b10000001010100 P
b10000001011000 V
b10000001011000 h
1"
#174000
0"
#175000
b10000001011000 4
b10000001011000 a
03
b10000001011000 P
b10000001011100 V
b10000001011100 h
b10000001010100 F
b10000001010100 Z
b10000001010100 C
1"
#176000
0"
#177000
b10000001011100 4
b10000001011100 a
03
b10000001011000 C
b10000001011000 F
b10000001011000 Z
b10000001011100 P
b10000001100000 V
b10000001100000 h
1"
#178000
0"
#179000
b10000001100000 4
b10000001100000 a
03
b10000001100000 P
b10000001100100 V
b10000001100100 h
b10000001011100 F
b10000001011100 Z
b10000001011100 C
1"
#180000
1'
b0 *
b0 u
0!
b0 %
b0 n
b0 8
b0 Y
b100 4
b100 a
13
b0 2
b0 f
b0 -
b0 e
b0 +
b0 s
b0 )
b0 d
b0 q
b0 (
b0 c
b0 r
b0 :
b0 g
b0 m
0R
b0 S
b0 ,
b0 [
b0 p
b0 T
b0 t
0=
b0 C
b0 B
b0 j
b0 A
b0 i
b0 @
b0 ?
0H
b0 F
b0 Z
b0 K
b0 J
b0 X
0N
b0 &
b0 E
b0 I
b0 M
b0 L
b0 G
b0 W
b0 P
b0 O
b0 b
b1000010001000000000000 1
b1000010001000000000000 l
b10000000000000 V
b10000000000000 h
0"
1#
b1111 #"
b1 &"
b1001111010100100010000000100000001000000010000000101000001100010011011001111100001100010011011100101001 %"
#181000
b11111 v
1"
#182000
0"
#183000
b11111 v
1"
#184000
0"
#185000
b11111 v
1"
#186000
0"
#187000
b11111 v
1"
#188000
0"
#189000
b11111 v
1"
#190000
0"
0#
b1000001000010001000000000000 1
b1000001000010001000000000000 l
b1000001000010001000000000000 )"
b1000001000010001000000000000 $"
b10000 $
#191000
b1 2
b1 f
b1111 +
b1111 s
b10000 )
b10000 d
b10000 q
b10001 (
b10001 c
b10001 r
bx S
b100 C
bx B
bx j
bx A
bx i
1D
1N
b10000000000000 P
b1000001000010001000000000000 O
b1000001000010001000000000000 b
b10001000000000000000000000000 1
b10001000000000000000000000000 l
b10000000000100 V
b10000000000100 h
1"
#192000
0"
#193000
b10 2
b10 f
b100 -
b100 e
b0 +
b0 s
b0 )
b0 d
b0 q
b0 (
b0 c
b0 r
b1111 7
b1111 ^
b10000000000100 4
b10000000000100 a
b10000000000100 P
b10001000000000000000000000000 O
b10001000000000000000000000000 b
bx 1
bx l
b10000000001000 V
b10000000001000 h
b10000000000000 F
b10000000000000 Z
b1111 J
b1111 X
b10001 M
b10000 L
b1 G
b1 W
1U
1"
#194000
0"
#195000
x'
bx *
bx u
x!
b0 7
b0 ^
b10000000001000 4
b10000000001000 a
bx 2
bx f
bx -
bx e
bx +
bx s
bx )
bx d
bx q
bx (
bx c
bx r
bx :
bx g
bx m
b10000000000100 C
b1111 ;
b10000000000100 F
b10000000000100 Z
b0 J
b0 X
b100 I
b0 M
b0 L
b10 G
b10 W
b10000000001000 P
bx O
bx b
b10000000001100 V
b10000000001100 h
1"
#196000
0"
#197000
bx 8
bx Y
03
b10000000001100 4
b10000000001100 a
b1111 %
b1111 n
b10000000001100 P
b10000000010000 V
b10000000010000 h
xH
b10000000001000 F
b10000000001000 Z
bx K
bx J
bx X
xN
bx &
bx E
bx I
bx M
bx L
bx G
bx W
b10000000001000 C
b0 ;
b100 ?
b1111 Q
1"
#198000
0"
#199000
b0 %
b0 n
b10000000010000 4
b10000000010000 a
03
b0 Q
b100 T
b100 t
x=
b10000000001100 C
0D
bx @
bx ?
b10000000001100 F
b10000000001100 Z
b10000000010000 P
b10000000010100 V
b10000000010100 h
1"
#200000
0"
#201000
bx %
bx n
b10000000010100 4
b10000000010100 a
03
b10000000010100 P
b10000000011000 V
b10000000011000 h
b10000000010000 F
b10000000010000 Z
b10000000010000 C
xR
0U
bx ,
bx [
bx p
bx T
bx t
1"
#202000
0"
#203000
b10000000011000 4
b10000000011000 a
03
b10000000010100 C
b10000000010100 F
b10000000010100 Z
b10000000011000 P
b10000000011100 V
b10000000011100 h
1"
#204000
0"
#205000
b10000000011100 4
b10000000011100 a
03
b10000000011100 P
b10000000100000 V
b10000000100000 h
b10000000011000 F
b10000000011000 Z
b10000000011000 C
1"
#206000
0"
#207000
b10000000100000 4
b10000000100000 a
03
b10000000011100 C
b10000000011100 F
b10000000011100 Z
b10000000100000 P
b10000000100100 V
b10000000100100 h
1"
#208000
0"
#209000
b10000000100100 4
b10000000100100 a
03
b10000000100100 P
b10000000101000 V
b10000000101000 h
b10000000100000 F
b10000000100000 Z
b10000000100000 C
1"
#210000
0"
#211000
b10000000101000 4
b10000000101000 a
03
b10000000100100 C
b10000000100100 F
b10000000100100 Z
b10000000101000 P
b10000000101100 V
b10000000101100 h
1"
#212000
0"
#213000
b10000000101100 4
b10000000101100 a
03
b10000000101100 P
b10000000110000 V
b10000000110000 h
b10000000101000 F
b10000000101000 Z
b10000000101000 C
1"
#214000
0"
